Verilog/Combinational/ParityGenEven/main.vcd
$date
	Mon Jun 29 11:22:22 2026
$end
$version
	Icarus Verilog
$end
$timescale
	1s
$end
$scope module main_tb $end
$var wire 1 ! p $end
$var reg 1 " a0 $end
$var reg 1 # a1 $end
$var reg 1 $ a2 $end
$var reg 1 % a3 $end
$scope module uut $end
$var wire 1 " a0 $end
$var wire 1 # a1 $end
$var wire 1 $ a2 $end
$var wire 1 % a3 $end
$var wire 1 ! p $end
$upscope $end
$upscope $end
$enddefinitions $end
$comment Show the parameter values. $end
$dumpall
$end
#0
$dumpvars
0%
0$
0#
0"
0!
$end
#10
1!
1"
#20
1#
0"
#30
0!
1"
#40
1!
1$
0#
0"
#50
0!
1"
#60
0$
1#
#70
1!
1$
#80
1%
0$
0#
0"
#90
0!
1"
#100
1#
0"
#110
1!
1"
#120
0!
1$
0#
0"
#130
1!
1"
#140
1#
0"
#150
0!
1"
