Verilog/Advanced/CPU8Bit/debug.log
mem0=0d
mem1=1e
mem2=2f
mem3=f0
VCD info: dumpfile main.vcd opened for output.
S=0 PC=0 MEMADDR=0 BUS=00 IRREG=00 IROUT=00 A=00 B=00 | PC_EN=1 PC_INC=0 MEM_EN=0 MEM_LD=1 IR_EN=0 IR_LD=0 A_EN=0 A_LD=0 B_LD=0 ADD_EN=0 SUB=0 HLT=0 T=1
S=0 PC=0 MEMADDR=0 BUS=00 IRREG=00 IROUT=00 A=00 B=00 | PC_EN=1 PC_INC=0 MEM_EN=0 MEM_LD=1 IR_EN=0 IR_LD=0 A_EN=0 A_LD=0 B_LD=0 ADD_EN=0 SUB=0 HLT=0 T=3
S=0 PC=0 MEMADDR=0 BUS=00 IRREG=00 IROUT=00 A=00 B=00 | PC_EN=1 PC_INC=0 MEM_EN=0 MEM_LD=1 IR_EN=0 IR_LD=0 A_EN=0 A_LD=0 B_LD=0 ADD_EN=0 SUB=0 HLT=0 T=5
S=0 PC=0 MEMADDR=0 BUS=00 IRREG=00 IROUT=00 A=00 B=00 | PC_EN=1 PC_INC=0 MEM_EN=0 MEM_LD=1 IR_EN=0 IR_LD=0 A_EN=0 A_LD=0 B_LD=0 ADD_EN=0 SUB=0 HLT=0 T=7
S=0 PC=0 MEMADDR=0 BUS=00 IRREG=00 IROUT=00 A=00 B=00 | PC_EN=1 PC_INC=0 MEM_EN=0 MEM_LD=1 IR_EN=0 IR_LD=0 A_EN=0 A_LD=0 B_LD=0 ADD_EN=0 SUB=0 HLT=0 T=9
S=1 PC=0 MEMADDR=0 BUS=00 IRREG=00 IROUT=00 A=00 B=00 | PC_EN=0 PC_INC=1 MEM_EN=0 MEM_LD=0 IR_EN=0 IR_LD=0 A_EN=0 A_LD=0 B_LD=0 ADD_EN=0 SUB=0 HLT=0 T=11
S=2 PC=1 MEMADDR=0 BUS=0d IRREG=00 IROUT=00 A=00 B=00 | PC_EN=0 PC_INC=0 MEM_EN=1 MEM_LD=0 IR_EN=0 IR_LD=1 A_EN=0 A_LD=0 B_LD=0 ADD_EN=0 SUB=0 HLT=0 T=13
S=3 PC=1 MEMADDR=0 BUS=0d IRREG=0d IROUT=0d A=00 B=00 | PC_EN=0 PC_INC=0 MEM_EN=0 MEM_LD=1 IR_EN=1 IR_LD=0 A_EN=0 A_LD=0 B_LD=0 ADD_EN=0 SUB=0 HLT=0 T=15
S=4 PC=1 MEMADDR=d BUS=03 IRREG=0d IROUT=0d A=00 B=00 | PC_EN=0 PC_INC=0 MEM_EN=1 MEM_LD=0 IR_EN=0 IR_LD=0 A_EN=0 A_LD=1 B_LD=0 ADD_EN=0 SUB=0 HLT=0 T=17
S=5 PC=1 MEMADDR=d BUS=00 IRREG=0d IROUT=0d A=03 B=00 | PC_EN=0 PC_INC=0 MEM_EN=0 MEM_LD=0 IR_EN=0 IR_LD=0 A_EN=0 A_LD=0 B_LD=0 ADD_EN=0 SUB=0 HLT=0 T=19
S=0 PC=1 MEMADDR=d BUS=01 IRREG=0d IROUT=0d A=03 B=00 | PC_EN=1 PC_INC=0 MEM_EN=0 MEM_LD=1 IR_EN=0 IR_LD=0 A_EN=0 A_LD=0 B_LD=0 ADD_EN=0 SUB=0 HLT=0 T=21
S=1 PC=1 MEMADDR=1 BUS=00 IRREG=0d IROUT=0d A=03 B=00 | PC_EN=0 PC_INC=1 MEM_EN=0 MEM_LD=0 IR_EN=0 IR_LD=0 A_EN=0 A_LD=0 B_LD=0 ADD_EN=0 SUB=0 HLT=0 T=23
S=2 PC=2 MEMADDR=1 BUS=1e IRREG=0d IROUT=0d A=03 B=00 | PC_EN=0 PC_INC=0 MEM_EN=1 MEM_LD=0 IR_EN=0 IR_LD=1 A_EN=0 A_LD=0 B_LD=0 ADD_EN=0 SUB=0 HLT=0 T=25
S=3 PC=2 MEMADDR=1 BUS=1e IRREG=1e IROUT=1e A=03 B=00 | PC_EN=0 PC_INC=0 MEM_EN=0 MEM_LD=1 IR_EN=1 IR_LD=0 A_EN=0 A_LD=0 B_LD=0 ADD_EN=0 SUB=0 HLT=0 T=27
S=4 PC=2 MEMADDR=e BUS=04 IRREG=1e IROUT=1e A=03 B=00 | PC_EN=0 PC_INC=0 MEM_EN=1 MEM_LD=0 IR_EN=0 IR_LD=0 A_EN=0 A_LD=0 B_LD=1 ADD_EN=0 SUB=0 HLT=0 T=29
S=5 PC=2 MEMADDR=e BUS=07 IRREG=1e IROUT=1e A=03 B=04 | PC_EN=0 PC_INC=0 MEM_EN=0 MEM_LD=0 IR_EN=0 IR_LD=0 A_EN=0 A_LD=1 B_LD=0 ADD_EN=1 SUB=0 HLT=0 T=31
S=0 PC=2 MEMADDR=e BUS=02 IRREG=1e IROUT=1e A=07 B=04 | PC_EN=1 PC_INC=0 MEM_EN=0 MEM_LD=1 IR_EN=0 IR_LD=0 A_EN=0 A_LD=0 B_LD=0 ADD_EN=0 SUB=0 HLT=0 T=33
S=1 PC=2 MEMADDR=2 BUS=00 IRREG=1e IROUT=1e A=07 B=04 | PC_EN=0 PC_INC=1 MEM_EN=0 MEM_LD=0 IR_EN=0 IR_LD=0 A_EN=0 A_LD=0 B_LD=0 ADD_EN=0 SUB=0 HLT=0 T=35
S=2 PC=3 MEMADDR=2 BUS=2f IRREG=1e IROUT=1e A=07 B=04 | PC_EN=0 PC_INC=0 MEM_EN=1 MEM_LD=0 IR_EN=0 IR_LD=1 A_EN=0 A_LD=0 B_LD=0 ADD_EN=0 SUB=0 HLT=0 T=37
S=3 PC=3 MEMADDR=2 BUS=2f IRREG=2f IROUT=2f A=07 B=04 | PC_EN=0 PC_INC=0 MEM_EN=0 MEM_LD=1 IR_EN=1 IR_LD=0 A_EN=0 A_LD=0 B_LD=0 ADD_EN=0 SUB=0 HLT=0 T=39
S=4 PC=3 MEMADDR=f BUS=02 IRREG=2f IROUT=2f A=07 B=04 | PC_EN=0 PC_INC=0 MEM_EN=1 MEM_LD=0 IR_EN=0 IR_LD=0 A_EN=0 A_LD=0 B_LD=1 ADD_EN=0 SUB=0 HLT=0 T=41
S=5 PC=3 MEMADDR=f BUS=05 IRREG=2f IROUT=2f A=07 B=02 | PC_EN=0 PC_INC=0 MEM_EN=0 MEM_LD=0 IR_EN=0 IR_LD=0 A_EN=0 A_LD=1 B_LD=0 ADD_EN=1 SUB=1 HLT=0 T=43
S=0 PC=3 MEMADDR=f BUS=03 IRREG=2f IROUT=2f A=05 B=02 | PC_EN=1 PC_INC=0 MEM_EN=0 MEM_LD=1 IR_EN=0 IR_LD=0 A_EN=0 A_LD=0 B_LD=0 ADD_EN=0 SUB=0 HLT=0 T=45
S=1 PC=3 MEMADDR=3 BUS=00 IRREG=2f IROUT=2f A=05 B=02 | PC_EN=0 PC_INC=1 MEM_EN=0 MEM_LD=0 IR_EN=0 IR_LD=0 A_EN=0 A_LD=0 B_LD=0 ADD_EN=0 SUB=0 HLT=0 T=47
S=2 PC=4 MEMADDR=3 BUS=f0 IRREG=2f IROUT=2f A=05 B=02 | PC_EN=0 PC_INC=0 MEM_EN=1 MEM_LD=0 IR_EN=0 IR_LD=1 A_EN=0 A_LD=0 B_LD=0 ADD_EN=0 SUB=0 HLT=0 T=49
