Advanced/CPU8Bit/main.vcd
$date
	Thu Jul  2 14:30:11 2026
$end
$version
	Icarus Verilog
$end
$timescale
	1s
$end
$scope module main_tb $end
$var reg 1 ! clk_in $end
$var reg 1 " rst $end
$scope module uut $end
$var wire 1 ! clk_in $end
$var wire 1 # rst $end
$var wire 1 " rst_in $end
$var wire 8 $ pc_out [7:0] $end
$var wire 1 % pc_inc $end
$var wire 1 & pc_en $end
$var wire 8 ' mem_out [7:0] $end
$var wire 1 ( mem_ld $end
$var wire 1 ) mem_en $end
$var wire 8 * ir_out [7:0] $end
$var wire 1 + ir_ld $end
$var wire 1 , ir_en $end
$var wire 1 - hlt $end
$var wire 1 . clk $end
$var wire 5 / bus_en [4:0] $end
$var wire 8 0 b_out [7:0] $end
$var wire 1 1 b_ld $end
$var wire 1 2 addsub_sub_flag $end
$var wire 8 3 addsub_out [7:0] $end
$var wire 1 4 addsub_en $end
$var wire 8 5 a_out [7:0] $end
$var wire 1 6 a_ld $end
$var wire 1 7 a_en $end
$var reg 8 8 bus [7:0] $end
$scope module uut_a $end
$var wire 8 9 bus [7:0] $end
$var wire 1 6 ld $end
$var wire 1 # rst $end
$var wire 8 : out [7:0] $end
$var wire 1 . clk $end
$var reg 8 ; reg_out [7:0] $end
$upscope $end
$scope module uut_addsub $end
$var wire 8 < a [7:0] $end
$var wire 1 2 sub $end
$var wire 8 = out [7:0] $end
$var wire 8 > b [7:0] $end
$upscope $end
$scope module uut_b $end
$var wire 8 ? bus [7:0] $end
$var wire 1 1 ld $end
$var wire 1 # rst $end
$var wire 8 @ out [7:0] $end
$var wire 1 . clk $end
$var reg 8 A reg_out [7:0] $end
$upscope $end
$scope module uut_clk $end
$var wire 1 - hlt $end
$var wire 1 ! in $end
$var wire 1 . out $end
$upscope $end
$scope module uut_controller $end
$var wire 1 . clk $end
$var wire 4 B opcode [3:0] $end
$var wire 12 C out [11:0] $end
$var wire 1 # rst $end
$var reg 12 D ctrl_word [11:0] $end
$var reg 3 E state [2:0] $end
$upscope $end
$scope module uut_ir $end
$var wire 8 F bus [7:0] $end
$var wire 1 . clk $end
$var wire 1 + ld $end
$var wire 8 G out [7:0] $end
$var wire 1 # rst $end
$var reg 8 H ir [7:0] $end
$upscope $end
$scope module uut_mem $end
$var wire 8 I bus [7:0] $end
$var wire 1 . clk $end
$var wire 1 ( ld $end
$var wire 8 J out [7:0] $end
$var wire 1 # rst $end
$var reg 4 K addr [3:0] $end
$upscope $end
$scope module uut_pc $end
$var wire 1 . clk $end
$var wire 1 L en $end
$var wire 1 % inc $end
$var wire 1 # rst $end
$var wire 8 M out [7:0] $end
$var reg 4 N pc [3:0] $end
$upscope $end
$upscope $end
$upscope $end
$enddefinitions $end
#0
$dumpvars
b0 N
b0 M
zL
b0 K
b1101 J
b0 I
b0 H
b0 G
b0 F
b0 E
b1100000000 D
b1100000000 C
b0 B
b0 A
b0 @
b0 ?
b0 >
b0 =
b0 <
b0 ;
b0 :
b0 9
b0 8
07
06
b0 5
04
b0 3
02
01
b0 0
b10000 /
0.
0-
0,
0+
b0 *
0)
1(
b1101 '
1&
0%
b0 $
1#
1"
0!
$end
#1
1.
1!
#2
0.
0!
#3
1.
1!
#4
0.
0!
#5
1.
1!
#6
0.
0!
#7
1.
1!
#8
0.
0!
#9
1.
1!
#10
1%
0(
b0 /
0&
b10000000000 C
b10000000000 D
b1 E
0.
0!
0#
0"
#11
b1 $
b1 M
b1 N
1.
1!
#12
b1101 8
b1101 9
b1101 ?
b1101 F
b1101 I
1+
b1000 /
1)
0%
b11000000 C
b11000000 D
b10 E
0.
0!
#13
b1101 *
b1101 G
b1101 H
1.
1!
#14
1(
1,
0+
b100 /
0)
b100100000 C
b100100000 D
b11 E
0.
0!
#15
b11 '
b11 J
b1101 K
1.
1!
#16
b11 8
b11 9
b11 ?
b11 F
b11 I
16
1)
b1000 /
0,
0(
b10010000 C
b10010000 D
b100 E
0.
0!
#17
b11 3
b11 =
b11 5
b11 :
b11 ;
b11 <
1.
1!
#18
b0 8
b0 9
b0 ?
b0 F
b0 I
06
b0 /
0)
b0 C
b0 D
b101 E
0.
0!
#19
1.
1!
#20
b1 8
b1 9
b1 ?
b1 F
b1 I
1(
b10000 /
1&
b1100000000 C
b1100000000 D
b0 E
0.
0!
#21
b11110 '
b11110 J
b1 K
1.
1!
#22
b0 8
b0 9
b0 ?
b0 F
b0 I
1%
0(
b0 /
0&
b10000000000 C
b10000000000 D
b1 E
0.
0!
#23
b10 $
b10 M
b10 N
1.
1!
#24
b11110 8
b11110 9
b11110 ?
b11110 F
b11110 I
1+
b1000 /
1)
0%
b11000000 C
b11000000 D
b10 E
0.
0!
#25
b11000000 C
b11000000 D
b1 B
b11110 *
b11110 G
b11110 H
1.
1!
#26
1(
1,
0+
b100 /
0)
b100100000 C
b100100000 D
b11 E
0.
0!
#27
b100 '
b100 J
b1110 K
1.
1!
#28
b100 8
b100 9
b100 ?
b100 F
b100 I
11
1)
b1000 /
0,
0(
b10000100 C
b10000100 D
b100 E
0.
0!
#29
b111 3
b111 =
b100 0
b100 >
b100 @
b100 A
1.
1!
#30
b111 8
b111 9
b111 ?
b111 F
b111 I
16
14
01
b1 /
0)
b10001 C
b10001 D
b101 E
0.
0!
#31
b1011 8
b1011 9
b1011 ?
b1011 F
b1011 I
b1011 3
b1011 =
b111 5
b111 :
b111 ;
b111 <
1.
1!
#32
b10 8
b10 9
b10 ?
b10 F
b10 I
1(
1&
b10000 /
04
06
b1100000000 C
b1100000000 D
b0 E
0.
0!
#33
b101111 '
b101111 J
b10 K
1.
1!
#34
b0 8
b0 9
b0 ?
b0 F
b0 I
1%
0(
b0 /
0&
b10000000000 C
b10000000000 D
b1 E
0.
0!
#35
b11 $
b11 M
b11 N
1.
1!
#36
b101111 8
b101111 9
b101111 ?
b101111 F
b101111 I
1+
b1000 /
1)
0%
b11000000 C
b11000000 D
b10 E
0.
0!
#37
b11000000 C
b11000000 D
b10 B
b101111 *
b101111 G
b101111 H
1.
1!
#38
1(
1,
0+
b100 /
0)
b100100000 C
b100100000 D
b11 E
0.
0!
#39
b10 '
b10 J
b1111 K
1.
1!
#40
b10 8
b10 9
b10 ?
b10 F
b10 I
11
1)
b1000 /
0,
0(
b10000100 C
b10000100 D
b100 E
0.
0!
#41
b1001 3
b1001 =
b10 0
b10 >
b10 @
b10 A
1.
1!
#42
b101 3
b101 =
b101 8
b101 9
b101 ?
b101 F
b101 I
16
12
14
01
b1 /
0)
b10011 C
b10011 D
b101 E
0.
0!
#43
b11 8
b11 9
b11 ?
b11 F
b11 I
b11 3
b11 =
b101 5
b101 :
b101 ;
b101 <
1.
1!
#44
b111 3
b111 =
1(
1&
b10000 /
04
02
06
b1100000000 C
b1100000000 D
b0 E
0.
0!
#45
b11110000 '
b11110000 J
b11 K
1.
1!
#46
b0 8
b0 9
b0 ?
b0 F
b0 I
1%
0(
b0 /
0&
b10000000000 C
b10000000000 D
b1 E
0.
0!
#47
b100 $
b100 M
b100 N
1.
1!
#48
b11110000 8
b11110000 9
b11110000 ?
b11110000 F
b11110000 I
1+
b1000 /
1)
0%
b11000000 C
b11000000 D
b10 E
0.
0!
#49
b11000000 C
b11000000 D
b1111 B
b11110000 *
b11110000 G
b11110000 H
1.
1!
#50
b0 8
b0 9
b0 ?
b0 F
b0 I
1-
0+
b0 /
0)
b100000000000 C
b100000000000 D
b11 E
0.
0!
